…
* Now we are ready to open the data with the `read_excel()` function from the `readxl` package
    + `readxl::read_excel()` the double colon specifies the `package::function()`
    + the only thing required inside the `()` is the quoted name of the Excel file 
      - Make sure it is stored in the .Rmd's folder
      - Make sure to include the file's extension *(.xls)*
      
> NOTE: a `tibble` is basically just a "table" of data, the way the tidy-verse represents data sets.
      

```r
read_excel("Ihno_dataset.xls")
```

```
# A tibble: 100 x 18
   Sub_num Gender Major Reason Exp_cond Coffee Num_cups Phobia Prevmath
     <dbl>  <dbl> <dbl>  <dbl>    <dbl>  <dbl>    <dbl>  <dbl>    <dbl>
 1    1.00   1.00  1.00   3.00     1.00   1.00     0      1.00     3.00
 2    2.00   1.00  1.00   2.00     1.00   0        0      1.00     4.00
 3    3.00   1.00  1.00   1.00     1.00   0        0      4.00     1.00
 4    4.00   1.00  1.00   1.00     1.00   0        0      4.00     0   
 5    5.00   1.00  1.00   1.00     1.00   0        1.00  10.0      1.00
 6    6.00   1.00  1.00   1.00     2.00   1.00     1.00   4.00     1.00
 7    7.00   1.00  1.00   1.00     2.00   0        0      4.00     2.00
 8    8.00   1.00  1.00   3.00     2.00   1.00     2.00   4.00     1.00
 9    9.00   1.00  1.00   1.00     2.00   0        0      4.00     1.00
10   10.0    1.00  1.00   1.00     2.00   1.00     2.00   5.00     0   
# ... with 90 more rows, and 9 more variables: Mathquiz <dbl>, Statquiz
#   <dbl>, Exp_sqz <dbl>, Hr_base <dbl>, Hr_pre <dbl>, Hr_post <dbl>,
#   Anx_base <dbl>, Anx_pre <dbl>, Anx_post <dbl>
```
…
```r
data <- read_excel("Ihno_dataset.xls") 
```


* Print out the dataset by just typing and running the name you assigned it


```r
data
```

```
# A tibble: 100 x 18
   Sub_num Gender Major Reason Exp_cond Coffee Num_cups Phobia Prevmath
     <dbl>  <dbl> <dbl>  <dbl>    <dbl>  <dbl>    <dbl>  <dbl>    <dbl>
 1    1.00   1.00  1.00   3.00     1.00   1.00     0      1.00     3.00
 2    2.00   1.00  1.00   2.00     1.00   0        0      1.00     4.00
 3    3.00   1.00  1.00   1.00     1.00   0        0      4.00     1.00
 4    4.00   1.00  1.00   1.00     1.00   0        0      4.00     0   
 5    5.00   1.00  1.00   1.00     1.00   0        1.00  10.0      1.00
 6    6.00   1.00  1.00   1.00     2.00   1.00     1.00   4.00     1.00
 7    7.00   1.00  1.00   1.00     2.00   0        0      4.00     2.00
 8    8.00   1.00  1.00   3.00     2.00   1.00     2.00   4.00     1.00
 9    9.00   1.00  1.00   1.00     2.00   0        0      4.00     1.00
10   10.0    1.00  1.00   1.00     2.00   1.00     2.00   5.00     0   
# ... with 90 more rows, and 9 more variables: Mathquiz <dbl>, Statquiz
#   <dbl>, Exp_sqz <dbl>, Hr_base <dbl>, Hr_pre <dbl>, Hr_post <dbl>,
#   Anx_base <dbl>, Anx_pre <dbl>, Anx_post <dbl>
```
…
### The Pipe `%>%` Opperator: Link Steps Togehter

This special set of symbols *(no spaces included)* signals R to feed what precedes it **into** what follows it.  Its a simple idea that makes code writing in R much easier. 


```r
data <- read_excel("Ihno_dataset.xls") %>% 
  dplyr::rename_all(tolower)              # convert variable names to lower case

data
```

```
# A tibble: 100 x 18
   sub_num gender major reason exp_cond coffee num_cups phobia prevmath
     <dbl>  <dbl> <dbl>  <dbl>    <dbl>  <dbl>    <dbl>  <dbl>    <dbl>
 1    1.00   1.00  1.00   3.00     1.00   1.00     0      1.00     3.00
 2    2.00   1.00  1.00   2.00     1.00   0        0      1.00     4.00
 3    3.00   1.00  1.00   1.00     1.00   0        0      4.00     1.00
 4    4.00   1.00  1.00   1.00     1.00   0        0      4.00     0   
 5    5.00   1.00  1.00   1.00     1.00   0        1.00  10.0      1.00
 6    6.00   1.00  1.00   1.00     2.00   1.00     1.00   4.00     1.00
 7    7.00   1.00  1.00   1.00     2.00   0        0      4.00     2.00
 8    8.00   1.00  1.00   3.00     2.00   1.00     2.00   4.00     1.00
 9    9.00   1.00  1.00   1.00     2.00   0        0      4.00     1.00
10   10.0    1.00  1.00   1.00     2.00   1.00     2.00   5.00     0   
# ... with 90 more rows, and 9 more variables: mathquiz <dbl>, statquiz
#   <dbl>, exp_sqz <dbl>, hr_base <dbl>, hr_pre <dbl>, hr_post <dbl>,
#   anx_base <dbl>, anx_pre <dbl>, anx_post <dbl>
```
…
### The `dplyr::select()` Function: Specify VARIABLES to include/keep

This function chooses which **variables** to include, excluding all others not given between the `()`.


```r
data %>% 
  dplyr::select(sub_num, gender, major, reason, exp_cond, coffee)
```

```
# A tibble: 100 x 6
   sub_num gender major reason exp_cond coffee
     <dbl>  <dbl> <dbl>  <dbl>    <dbl>  <dbl>
 1    1.00   1.00  1.00   3.00     1.00   1.00
 2    2.00   1.00  1.00   2.00     1.00   0   
 3    3.00   1.00  1.00   1.00     1.00   0   
 4    4.00   1.00  1.00   1.00     1.00   0   
 5    5.00   1.00  1.00   1.00     1.00   0   
 6    6.00   1.00  1.00   1.00     2.00   1.00
 7    7.00   1.00  1.00   1.00     2.00   0   
 8    8.00   1.00  1.00   3.00     2.00   1.00
 9    9.00   1.00  1.00   1.00     2.00   0   
10   10.0    1.00  1.00   1.00     2.00   1.00
# ... with 90 more rows
```



### The `dplyr::filter()` Function: Specify OBSERVATIONS to include/keep

This function chooses which **observations** to include, excluding all others not given between the `()`.


```r
data %>% 
  dplyr::filter(gender == 1)
```

```
# A tibble: 57 x 18
   sub_num gender major reason exp_cond coffee num_cups phobia prevmath
     <dbl>  <dbl> <dbl>  <dbl>    <dbl>  <dbl>    <dbl>  <dbl>    <dbl>
 1    1.00   1.00  1.00   3.00     1.00   1.00     0      1.00     3.00
 2    2.00   1.00  1.00   2.00     1.00   0        0      1.00     4.00
 3    3.00   1.00  1.00   1.00     1.00   0        0      4.00     1.00
 4    4.00   1.00  1.00   1.00     1.00   0        0      4.00     0   
 5    5.00   1.00  1.00   1.00     1.00   0        1.00  10.0      1.00
 6    6.00   1.00  1.00   1.00     2.00   1.00     1.00   4.00     1.00
 7    7.00   1.00  1.00   1.00     2.00   0        0      4.00     2.00
 8    8.00   1.00  1.00   3.00     2.00   1.00     2.00   4.00     1.00
 9    9.00   1.00  1.00   1.00     2.00   0        0      4.00     1.00
10   10.0    1.00  1.00   1.00     2.00   1.00     2.00   5.00     0   
# ... with 47 more rows, and 9 more variables: mathquiz <dbl>, statquiz
#   <dbl>, exp_sqz <dbl>, hr_base <dbl>, hr_pre <dbl>, hr_post <dbl>,
#   anx_base <dbl>, anx_pre <dbl>, anx_post <dbl>
```

You can combine steps to multiple things.  The steps are completed in the order we read: top to bottom, left to right.


```r
data %>% 
  dplyr::select(sub_num, gender, major, reason, exp_cond, coffee) %>% 
  dplyr::filter(gender == 1)
```

```
# A tibble: 57 x 6
   sub_num gender major reason exp_cond coffee
     <dbl>  <dbl> <dbl>  <dbl>    <dbl>  <dbl>
 1    1.00   1.00  1.00   3.00     1.00   1.00
 2    2.00   1.00  1.00   2.00     1.00   0   
 3    3.00   1.00  1.00   1.00     1.00   0   
 4    4.00   1.00  1.00   1.00     1.00   0   
 5    5.00   1.00  1.00   1.00     1.00   0   
 6    6.00   1.00  1.00   1.00     2.00   1.00
 7    7.00   1.00  1.00   1.00     2.00   0   
 8    8.00   1.00  1.00   3.00     2.00   1.00
 9    9.00   1.00  1.00   1.00     2.00   0   
10   10.0    1.00  1.00   1.00     2.00   1.00
# ... with 47 more rows
```
…
> You must include the SAME number of levels and labels.  The ORDER in the sets designates how the labels will be applied to the levels.

Here is how it looks to create ONE new factor.  Notice I added the letter `F` to designate that this new variable is a factor.  


```r
data %>% 
  dplyr::mutate(genderF = factor(gender,
                                 levels = c(1, 2),
                                 labels = c("Female", "Male"))) 
```

```
# A tibble: 100 x 19
   sub_num gender major reason exp_cond coffee num_cups phobia prevmath
     <dbl>  <dbl> <dbl>  <dbl>    <dbl>  <dbl>    <dbl>  <dbl>    <dbl>
 1    1.00   1.00  1.00   3.00     1.00   1.00     0      1.00     3.00
 2    2.00   1.00  1.00   2.00     1.00   0        0      1.00     4.00
 3    3.00   1.00  1.00   1.00     1.00   0        0      4.00     1.00
 4    4.00   1.00  1.00   1.00     1.00   0        0      4.00     0   
 5    5.00   1.00  1.00   1.00     1.00   0        1.00  10.0      1.00
 6    6.00   1.00  1.00   1.00     2.00   1.00     1.00   4.00     1.00
 7    7.00   1.00  1.00   1.00     2.00   0        0      4.00     2.00
 8    8.00   1.00  1.00   3.00     2.00   1.00     2.00   4.00     1.00
 9    9.00   1.00  1.00   1.00     2.00   0        0      4.00     1.00
10   10.0    1.00  1.00   1.00     2.00   1.00     2.00   5.00     0   
# ... with 90 more rows, and 10 more variables: mathquiz <dbl>, statquiz
#   <dbl>, exp_sqz <dbl>, hr_base <dbl>, hr_pre <dbl>, hr_post <dbl>,
#   anx_base <dbl>, anx_pre <dbl>, anx_post <dbl>, genderF <fct>
```
…
```r
data2 <- dataF %>% 
  dplyr::mutate(mathquiz_p50 = mathquiz + 50) 
```



```r
data2 %>% 
  dplyr::select(sub_num, mathquiz, mathquiz_p50)
```

```
# A tibble: 100 x 3
   sub_num mathquiz mathquiz_p50
     <dbl>    <dbl>        <dbl>
 1    1.00     43.0         93.0
 2    2.00     49.0         99.0
 3    3.00     26.0         76.0
 4    4.00     29.0         79.0
 5    5.00     31.0         81.0
 6    6.00     20.0         70.0
 7    7.00     13.0         63.0
 8    8.00     23.0         73.0
 9    9.00     38.0         88.0
10   10.0      NA           NA  
# ... with 90 more rows
```
…
```r
data3 <- data2 %>% 
  dplyr::mutate(hr_base_bps = hr_base / 60) 
```



```r
data3 %>% 
  dplyr::select(sub_num, hr_base, hr_base_bps) 
```

```
# A tibble: 100 x 3
   sub_num hr_base hr_base_bps
     <dbl>   <dbl>       <dbl>
 1    1.00    71.0        1.18
 2    2.00    73.0        1.22
 3    3.00    69.0        1.15
 4    4.00    72.0        1.20
 5    5.00    71.0        1.18
 6    6.00    70.0        1.17
 7    7.00    71.0        1.18
 8    8.00    77.0        1.28
 9    9.00    73.0        1.22
10   10.0     78.0        1.30
# ... with 90 more rows
```
…
```r
data4b <- data4a %>% 
  dplyr::mutate(statquiz_4b = (statquiz * 10) + 2 )
```


```r
data4b %>% 
  dplyr::select(sub_num, statquiz, statquiz_4a, statquiz_4b) 
```

```
# A tibble: 100 x 4
   sub_num statquiz statquiz_4a statquiz_4b
     <dbl>    <dbl>       <dbl>       <dbl>
 1    1.00     6.00        80.0        62.0
 2    2.00     9.00       110          92.0
 3    3.00     8.00       100          82.0
 4    4.00     7.00        90.0        72.0
 5    5.00     6.00        80.0        62.0
 6    6.00     7.00        90.0        72.0
 7    7.00     3.00        50.0        32.0
 8    8.00     7.00        90.0        72.0
 9    9.00     8.00       100          82.0
10   10.0      7.00        90.0        72.0
# ... with 90 more rows
```
…
```r
data5a %>% 
  dplyr::select(sub_num, 
                anx_base, anx_pre, anx_post, 
                anx_plus, anx_sum, anx_rowsums) 
```

```
# A tibble: 100 x 7
   sub_num anx_base anx_pre anx_post anx_plus anx_sum anx_rowsums
     <dbl>    <dbl>   <dbl>    <dbl>    <dbl>   <dbl>       <dbl>
 1    1.00     17.0    22.0     20.0     59.0    5741        59.0
 2    2.00     17.0    19.0     16.0     52.0    5741        52.0
 3    3.00     19.0    14.0     15.0     48.0    5741        48.0
 4    4.00     19.0    13.0     16.0     48.0    5741        48.0
 5    5.00     26.0    30.0     25.0     81.0    5741        81.0
 6    6.00     12.0    15.0     19.0     46.0    5741        46.0
 7    7.00     12.0    16.0     17.0     45.0    5741        45.0
 8    8.00     17.0    19.0     22.0     58.0    5741        58.0
 9    9.00     20.0    14.0     17.0     51.0    5741        51.0
10   10.0      20.0    24.0     19.0     63.0    5741        63.0
# ... with 90 more rows
```
…
```r
data5b %>% 
  dplyr::select(sub_num, 
                hr_base, hr_pre, hr_post, 
                hr_avg,  hr_rowmeans) 
```

```
# A tibble: 100 x 6
   sub_num hr_base hr_pre hr_post hr_avg hr_rowmeans
     <dbl>   <dbl>  <dbl>   <dbl>  <dbl>       <dbl>
 1    1.00    71.0   68.0    65.0   68.0        68.0
 2    2.00    73.0   75.0    68.0   72.0        72.0
 3    3.00    69.0   76.0    72.0   72.3        72.3
 4    4.00    72.0   73.0    78.0   74.3        74.3
 5    5.00    71.0   83.0    74.0   76.0        76.0
 6    6.00    70.0   71.0    76.0   72.3        72.3
 7    7.00    71.0   70.0    66.0   69.0        69.0
 8    8.00    77.0   87.0    84.0   82.7        82.7
 9    9.00    73.0   72.0    67.0   70.7        70.7
10   10.0     78.0   76.0    74.0   76.0        76.0
# ... with 90 more rows
```
…
```r
data6 <- data5b %>% 
  dplyr::mutate(statDiff = statquiz - exp_sqz)
```


```r
data6 %>% 
  dplyr::select(sub_num, exp_cond, exp_condF,
                statquiz, exp_sqz, statDiff) 
```

```
# A tibble: 100 x 6
   sub_num exp_cond exp_condF statquiz exp_sqz statDiff
     <dbl>    <dbl> <fct>        <dbl>   <dbl>    <dbl>
 1    1.00     1.00 Easy          6.00    7.00    -1.00
 2    2.00     1.00 Easy          9.00   11.0     -2.00
 3    3.00     1.00 Easy          8.00    8.00     0   
 4    4.00     1.00 Easy          7.00    8.00    -1.00
 5    5.00     1.00 Easy          6.00    6.00     0   
 6    6.00     2.00 Moderate      7.00    6.00     1.00
 7    7.00     2.00 Moderate      3.00    4.00    -1.00
 8    8.00     2.00 Moderate      7.00    7.00     0   
 9    9.00     2.00 Moderate      8.00    7.00     1.00
10   10.0      2.00 Moderate      7.00    6.00     1.00
# ... with 90 more rows
```
…
