…
### Multiple Boxes -for- Repeated Measurements

The ordinal data is in what is called **"WIDE" format**, with the repeated measurements as separate variables, sitting side-by-side.  Each participant's data is contained in a single line *(25 lines here)*.

> To sort a dataset, use the `dplyr::arrange()` function and include the variable or variables you wish to sort by in the parentheses.


```r
cancer_clean %>% 
  dplyr::arrange(id) %>% 
  dplyr::select(id, totalcin, totalcw2, totalcw4, totalcw6)
```

```
# A tibble: 25 x 5
   id    totalcin totalcw2 totalcw4 totalcw6
   <fct>    <dbl>    <dbl>    <dbl>    <dbl>
 1 1         6.00     6.00     6.00     7.00
 2 2         7.00    16.0      9.00    10.0 
 3 5         9.00     6.00    10.0      9.00
 4 6         7.00     9.00    17.0     19.0 
 5 9         6.00     7.00     9.00     3.00
 6 11        6.00     7.00    16.0     13.0 
 7 12        6.00    10.0     11.0      9.00
 8 14        4.00     6.00     8.00     7.00
 9 15        6.00     6.00     6.00    11.0 
10 16        6.00    11.0     11.0     14.0 
# ... with 15 more rows
```
…
> Ignore the message that says *"attributes are not identical across measure variables; they will be dropped"*.


```r
cancer_clean %>%
  tidyr::gather(key = "time", 
                value = "value", 
                totalcin, totalcw2, totalcw4, totalcw6) %>% 
  dplyr::arrange(id, time) %>% 
  dplyr::select(id, time, value)
```

```
# A tibble: 100 x 3
   id    time     value
   <fct> <chr>    <dbl>
 1 1     totalcin  6.00
 2 1     totalcw2  6.00
 3 1     totalcw4  6.00
 4 1     totalcw6  7.00
 5 2     totalcin  7.00
 6 2     totalcw2 16.0 
 7 2     totalcw4  9.00
 8 2     totalcw6 10.0 
 9 5     totalcin  9.00
10 5     totalcw2  6.00
# ... with 90 more rows
```
…
