…
Before a paired t-test is ran, the dataset must be restructured from WIDE form (variables sitting side-by-side) to LONG form (variable values stacked on-top-of each other).

Notice for this dataset, there are $n = 23$ participants with complete data on the oral condition at weeks 2 and 6, since two out of the 25 do not have scores at the sixth week.



```r
# This dataset is in WIDE format: paired variables side-by-side
cancer_clean %>% 
  dplyr::filter(complete.cases(totalcw2, totalcw6))
```

```
# A tibble: 23 x 9
   id    trt       age weighin stage totalcin totalcw2 totalcw4 totalcw6
   <fct> <fct>   <dbl>   <dbl> <fct>    <dbl>    <dbl>    <dbl>    <dbl>
 1 1     Placebo  52.0     124 2         6.00     6.00     6.00     7.00
 2 5     Placebo  77.0     160 1         9.00     6.00    10.0      9.00
 3 6     Placebo  60.0     136 4         7.00     9.00    17.0     19.0 
 4 9     Placebo  61.0     180 1         6.00     7.00     9.00     3.00
 5 11    Placebo  59.0     176 2         6.00     7.00    16.0     13.0 
 6 15    Placebo  69.0     168 1         6.00     6.00     6.00    11.0 
 7 21    Placebo  67.0     186 1         6.00    11.0     11.0     10.0 
 8 26    Placebo  56.0     158 3         6.00    11.0     15.0     15.0 
 9 31    Placebo  61.0     213 1         6.00     9.00     6.00     8.00
10 35    Placebo  51.0     189 1         6.00     4.00     8.00     7.00
# ... with 13 more rows
```
…
* **na.rm** - Do not get ride of blank values (na.rm = remove the NA or blank values):  `na.rm = FALSE`



```r
# This dataset is in LONG format: total oral condiditon (at weeks 2 & 6) is stored in 1 variable, stacked
cancer_clean %>% 
  dplyr::filter(complete.cases(totalcw2, totalcw6)) %>% 
  tidyr::gather(key = time,
                value = totalc,
                totalcw2, totalcw6)
```

```
# A tibble: 46 x 9
   id    trt       age weighin stage totalcin totalcw4 time     totalc
   <fct> <fct>   <dbl>   <dbl> <fct>    <dbl>    <dbl> <chr>     <dbl>
 1 1     Placebo  52.0     124 2         6.00     6.00 totalcw2   6.00
 2 5     Placebo  77.0     160 1         9.00    10.0  totalcw2   6.00
 3 6     Placebo  60.0     136 4         7.00    17.0  totalcw2   9.00
 4 9     Placebo  61.0     180 1         6.00     9.00 totalcw2   7.00
 5 11    Placebo  59.0     176 2         6.00    16.0  totalcw2   7.00
 6 15    Placebo  69.0     168 1         6.00     6.00 totalcw2   6.00
 7 21    Placebo  67.0     186 1         6.00    11.0  totalcw2  11.0 
 8 26    Placebo  56.0     158 3         6.00    15.0  totalcw2  11.0 
 9 31    Placebo  61.0     213 1         6.00     6.00 totalcw2   9.00
10 35    Placebo  51.0     189 1         6.00     8.00 totalcw2   4.00
# ... with 36 more rows
```
…
